# ProBuilder 4.2.3
# https://unity3d.com/unity/features/worldbuilding/probuilder
# 7/14/2020 9:47:24 PM

mtllib ./MESH_DUNGEON_SPIDERWEB.mtl
o MESH_DUNGEON_SPIDERWEB

g MESH_DUNGEON_SPIDERWEB
v -1.895428E-05 2.5 -2.5
v -2.500019 2.5 0
v 0 0 0

vt -0.3476563 1.006653
vt 1.34375 1.006653
vt 0.4648399 -0.3789063

vn -0.5773488 -0.5773532 -0.5773488

usemtl MAT_SPIDERWEB
f 3/3/1 2/2/1 1/1/1

