%YAML 1.1
%TAG !u! tag:unity3d.com,2011:
--- !u!114 &11400000
MonoBehaviour:
  m_ObjectHideFlags: 0
  m_CorrespondingSourceObject: {fileID: 0}
  m_PrefabInstance: {fileID: 0}
  m_PrefabAsset: {fileID: 0}
  m_GameObject: {fileID: 0}
  m_Enabled: 1
  m_EditorHideFlags: 0
  m_Script: {fileID: 11500000, guid: 3f1ca63a91b17724bbd99c8fa67e0180, type: 3}
  m_Name: Default Material Palette
  m_EditorClassIdentifier: 
  array:
  - {fileID: 2100000, guid: 3d322f727cef2fe47bce6e5f12981f80, type: 2}
  - {fileID: 2100000, guid: 00fb3151ba990c64c974b0478b5f26b5, type: 2}
  - {fileID: 2100000, guid: 4d472632f04118a4e83b26ace9d1aada, type: 2}
  - {fileID: 2100000, guid: bbc988f7cda76d54cb92b12fafef2eae, type: 2}
  - {fileID: 2100000, guid: da92c2890c72bbe4385426839b70792f, type: 2}
  - {fileID: 2100000, guid: 5929c8efb30502a489d9728f0b23aadc, type: 2}
  - {fileID: 2100000, guid: 99fbc731e5d18a8418540567dc453761, type: 2}
  - {fileID: 2100000, guid: c63bfda2abc95804c9b9990155497159, type: 2}
  - {fileID: 2100000, guid: 2e8af522fcd604844a8a4509a6f99ff5, type: 2}
  - {fileID: 0}
  - {fileID: 2100000, guid: a2e692d59ca6ef64c859649de586fae9, type: 2}
